"1","IT","bryanjadeloplop@gmail.com","10000000","1","1000000","800000","1","1000000","30000000","70","50","1","","1","10","8","1","3","1","2020-08-31T02:34:20.000000Z","2020-08-31T02:34:20.000000Z"
"2","IT","bryanjadeloplop@gmail.com","10000000","1","1000000","800000","1","1000000","30000000","70","50","1","","","10","8","1","3","","2020-08-31T02:56:30.000000Z","2020-08-31T02:56:30.000000Z"
"3","IT","bryanjadeloplop@gmail.com","10000000","1","1000000","800000","1","1000000","30000000","70","50","1","","1","10","8","1","3","1","2020-08-31T02:57:26.000000Z","2020-08-31T02:57:26.000000Z"
"4","IT","bryanjadeloplop@gmail.com","10000000","1","1000000","800000","1","1000000","30000000","70","50","1","","1","10","8","1","3","1","2020-08-31T03:04:29.000000Z","2020-08-31T03:04:29.000000Z"
"5","IT","bryanjadeloplop@gmail.com","10000000","1","1000000","800000","1","1000000","30000000","70","50","1","","1","10","8","1","3","1","2020-08-31T03:07:22.000000Z","2020-08-31T03:07:22.000000Z"
"6","IT","owner@example.com","10000000","1","1000000","800000","1","1000000","30000000","70","50","1","1","","10","8","1","3","1","2020-08-31T03:08:20.000000Z","2020-08-31T03:08:20.000000Z"
"7","IT","admin@example.com","10000000","1","1000000","800000","2","1000000","30000000","70","50","","1","","10","8","1","3","","2020-08-31T03:26:40.000000Z","2020-08-31T03:26:40.000000Z"
"8","IT","bryanjadeloplop@gmail.com","10000000","1","1000000","800000","1","1000000","30000000","70","50","1","","1","10","8","1","3","1","2020-08-31T03:35:09.000000Z","2020-08-31T03:35:09.000000Z"
"9","IT","admin@example.com","10000000","1","1000000","800000","1","1000000","30000000","70","50","","","","10","8","1","3","","2020-08-31T03:59:26.000000Z","2020-08-31T03:59:26.000000Z"
"10","IT","owner@example.com","10000000","1","1000000","800000","1","1000000","30000000","70","50","","1","","10","8","1","3","","2020-08-31T04:03:39.000000Z","2020-08-31T04:03:39.000000Z"
"11","IT","bryanjadeloplop@gmail.com","10000000","1","1000000","800000","1","1000000","30000000","70","50","1","","1","10","8","1","3","1","2020-08-31T04:50:20.000000Z","2020-08-31T04:50:20.000000Z"
"12","IT","bryanjadeloplop@gmail.com","10000000","1","1000000","800000","1","1000000","30000000","70","50","1","","1","10","8","1","3","1","2020-08-31T04:51:57.000000Z","2020-08-31T04:51:57.000000Z"
"13","IT","bryanjadeloplop@gmail.com","10000000","1","1000000","800000","1","1000000","30000000","70","50","1","","1","10","8","1","3","1","2020-08-31T04:53:52.000000Z","2020-08-31T04:53:52.000000Z"
"14","IT","owner@example.com","10000000","1","1000000","800000","1","1000000","30000000","70","50","1","","1","10","8","1","3","1","2020-08-31T04:55:19.000000Z","2020-08-31T04:55:19.000000Z"
"15","IT","bryanjadeloplop@gmail.com","10000000","1","1000000","800000","1","1000000","30000000","70","50","1","","1","10","8","1","3","1","2020-08-31T04:56:05.000000Z","2020-08-31T04:56:05.000000Z"
"16","IT","bryanjadeloplop@gmail.com","10000000","1","1000000","800000","1","1000000","30000000","70","50","1","","1","10","8","1","3","1","2020-08-31T04:57:43.000000Z","2020-08-31T04:57:43.000000Z"
"17","IT","bryanjadeloplop@gmail.com","10000000","1","1000000","800000","1","1000000","30000000","70","50","1","","1","10","8","1","3","1","2020-08-31T04:58:56.000000Z","2020-08-31T04:58:56.000000Z"
"18","IT","bryanjadeloplop@gmail.com","10000000","1","1000000","800000","1","1000000","30000000","70","50","1","","1","10","8","1","3","1","2020-08-31T04:59:58.000000Z","2020-08-31T04:59:58.000000Z"
"19","IT","bryanjadeloplop@gmail.com","10000000","1","1000000","800000","1","1000000","30000000","70","50","1","","1","10","8","1","3","1","2020-08-31T05:00:52.000000Z","2020-08-31T05:00:52.000000Z"
"20","IT","bryanjadeloplop@gmail.com","10000000","1","1000000","800000","1","1000000","30000000","70","50","1","","1","10","8","1","3","1","2020-08-31T05:07:33.000000Z","2020-08-31T05:07:33.000000Z"
"21","IT","bryanjadeloplop@gmail.com","10000000","1","1000000","800000","1","1000000","30000000","70","50","1","","1","10","8","1","3","1","2020-08-31T05:08:33.000000Z","2020-08-31T05:08:33.000000Z"
"22","IT","bryanjadeloplop@gmail.com","10000000","1","1000000","800000","1","1000000","30000000","70","50","1","","1","10","8","1","3","1","2020-08-31T05:09:19.000000Z","2020-08-31T05:09:19.000000Z"
"23","IT","admin@example.com","10000000","1","1000000","800000","1","1000000","30000000","70","50","1","","1","10","8","1","3","1","2020-08-31T05:14:12.000000Z","2020-08-31T05:14:12.000000Z"
"24","IT","owner@example.com","10000000","1","1000000","800000","1","1000000","30000000","70","50","1","1","","10","8","1","3","1","2020-08-31T06:11:16.000000Z","2020-08-31T06:11:16.000000Z"
"25","IT","admin@example.com","10000000","1","11","11","1","11","11","11","11","","","","0.00011","0.00011","1","1.1E-6","","2020-08-31T06:12:36.000000Z","2020-08-31T06:12:36.000000Z"
